{
  "project_info": {
    "project_number": "378234050035",
    "firebase_url": "https://ubiq-2010c.firebaseio.com",
    "project_id": "ubiq-2010c",
    "storage_bucket": "ubiq-2010c.appspot.com"
  },
  "client": [
    {
      "client_info": {
        "mobilesdk_app_id": "1:378234050035:android:10fc361b23a47e66",
        "android_client_info": {
          "package_name": "com.example.aps.ubiq"
        }
      },
      "oauth_client": [
        {
          "client_id": "378234050035-5m3gcaijil3tl8urorei4ktvenvgl5h2.apps.googleusercontent.com",
          "client_type": 3
        }
      ],
      "api_key": [
        {
          "current_key": "AIzaSyB0ITwOoLny1hT4vRhjm0uY5_Y5qXuIOwY"
        }
      ],
      "services": {
        "analytics_service": {
          "status": 1
        },
        "appinvite_service": {
          "status": 1,
          "other_platform_oauth_client": []
        },
        "ads_service": {
          "status": 2
        }
      }
    }
  ],
  "configuration_version": "1"
}